2021-05-23 11:21:18: App: "Profile directory: /Users/RaghavDixit/.config/joplin-desktop"
2021-05-23 11:21:18: "Database was open successfully"
2021-05-23 11:21:18: "Checking for database schema update..."
2021-05-23 11:21:18: "Current database version", "null"
2021-05-23 11:21:18: "Upgrading database from version 0"
2021-05-23 11:21:18: "Converting database to version 1"
2021-05-23 11:21:18: "Converting database to version 2"
2021-05-23 11:21:18: "Converting database to version 3"
2021-05-23 11:21:18: "Converting database to version 4"
2021-05-23 11:21:18: "Converting database to version 5"
2021-05-23 11:21:18: "Converting database to version 6"
2021-05-23 11:21:18: "Converting database to version 7"
2021-05-23 11:21:18: "Converting database to version 8"
2021-05-23 11:21:18: "Converting database to version 9"
2021-05-23 11:21:18: "Converting database to version 10"
2021-05-23 11:21:18: "Converting database to version 11"
2021-05-23 11:21:18: "Converting database to version 12"
2021-05-23 11:21:18: "Converting database to version 13"
2021-05-23 11:21:18: "Converting database to version 14"
2021-05-23 11:21:18: "Converting database to version 15"
2021-05-23 11:21:18: "Converting database to version 16"
2021-05-23 11:21:18: "Converting database to version 17"
2021-05-23 11:21:18: "Converting database to version 18"
2021-05-23 11:21:18: "Converting database to version 19"
2021-05-23 11:21:18: "Converting database to version 20"
2021-05-23 11:21:18: "Converting database to version 21"
2021-05-23 11:21:18: "Converting database to version 22"
2021-05-23 11:21:18: "Converting database to version 23"
2021-05-23 11:21:18: "Converting database to version 24"
2021-05-23 11:21:18: "Converting database to version 25"
2021-05-23 11:21:18: "Converting database to version 26"
2021-05-23 11:21:18: "Converting database to version 27"
2021-05-23 11:21:18: "Converting database to version 28"
2021-05-23 11:21:18: "Converting database to version 29"
2021-05-23 11:21:18: "Converting database to version 30"
2021-05-23 11:21:18: "Converting database to version 31"
2021-05-23 11:21:18: "Converting database to version 32"
2021-05-23 11:21:18: "Converting database to version 33"
2021-05-23 11:21:18: "Converting database to version 34"
2021-05-23 11:21:18: "Migration failed with fallback and will not be repeated - saving version number"
2021-05-23 11:21:18: "Converting database to version 35"
2021-05-23 11:21:18: "New version: 35. Previously recorded version: 0"
2021-05-23 11:21:18: "Initializing tables..."
2021-05-23 11:21:19: "KeychainService: checking if keychain supported"
2021-05-23 11:21:19: "KeychainService: tried to set and get password. Result was:", "mytest"
2021-05-23 11:21:19: handleSyncStartupOperation: "Processing operation:", "0"
2021-05-23 11:21:19: App: "Client ID: fc496007980c466ab78d22d211e24b02"
2021-05-23 11:21:19: "First start: detected locale as en_GB"
2021-05-23 11:21:19: "Trying to load 0 master keys..."
2021-05-23 11:21:19: "Loaded master keys: 0"
2021-05-23 11:21:19: "ResourceFetcher: Auto-add resources: Mode: always"
2021-05-23 11:21:19: "ResourceFetcher: Auto-added resources: 0"
2021-05-23 11:21:19: "Running migration: 20"
2021-05-23 11:21:19: "Running migration: 27"
2021-05-23 11:21:19: "Running migration: 33"
2021-05-23 11:21:19: "SearchEngine: Updating FTS table..."
2021-05-23 11:21:19: "Running migration: 35"
2021-05-23 11:21:19: "SearchEngine: Updating FTS table..."
2021-05-23 11:21:19: "Trying to load 0 master keys..."
2021-05-23 11:21:19: "Loaded master keys: 0"
2021-05-23 11:21:19: "Trying to load 0 master keys..."
2021-05-23 11:21:19: "Loaded master keys: 0"
2021-05-23 11:21:19: "Trying to load 0 master keys..."
2021-05-23 11:21:19: "Loaded master keys: 0"
2021-05-23 11:21:19: "app.start: doing regular boot"
2021-05-23 11:21:19: "Trying to load 0 master keys..."
2021-05-23 11:21:19: "Loaded master keys: 0"
2021-05-23 11:21:19: "Trying to load 0 master keys..."
2021-05-23 11:21:19: "Loaded master keys: 0"
2021-05-23 11:21:19: "Trying to load 0 master keys..."
2021-05-23 11:21:19: "Loaded master keys: 0"
2021-05-23 11:21:19: "RevisionService::runInBackground: Starting background service with revision collection interval 600000"
2021-05-23 11:21:19: SpellCheckerServiceDriverNative: "Set effective language from "en-US" to "en-US""
2021-05-23 11:21:19: SpellCheckerServiceDriverNative: "Set effective language from "en-US" to "en-US""
2021-05-23 11:21:21: "Preparing scheduled sync"
2021-05-23 11:21:21: "Saving updated Dropbox auth."
2021-05-23 11:21:21: "DecryptionWorker: cannot start because no master key is currently loaded."
2021-05-23 11:21:21: "Synchroniser is missing credentials - manual sync required to authenticate."
2021-05-23 11:21:21: "Updating all notifications..."
2021-05-23 11:21:21: "Garbage collecting alarms..."
2021-05-23 11:21:22: "DecryptionWorker: cannot start because no master key is currently loaded."
2021-05-23 11:21:23: "RevisionService::maintenance: Starting..."
2021-05-23 11:21:23: "RevisionService::maintenance: Service is enabled"
2021-05-23 11:21:23: "RevisionService::collectRevisions: Created revisions for 0 notes"
2021-05-23 11:21:23: "RevisionService::maintenance: Done in 138ms"
2021-05-23 11:21:29: "SearchEngine: Updating FTS table..."
2021-05-23 11:21:29: "SearchEngine: Updated FTS table in 52ms. Inserted: 5. Deleted: 0"
2021-05-23 11:21:49: "ResourceService::indexNoteResources: Start"
2021-05-23 11:21:49: "ResourceService::indexNoteResources: Completed"
2021-05-23 11:21:49: "ResourceService::deleteOrphanResources:", "[]"
2021-05-23 11:21:52: "Preparing scheduled sync"
2021-05-23 11:21:52: "Synchroniser is missing credentials - manual sync required to authenticate."
2021-06-01 15:10:13: App: "Profile directory: /Users/RaghavDixit/.config/joplin-desktop"
2021-06-01 15:10:13: "Database was open successfully"
2021-06-01 15:10:13: "Checking for database schema update..."
2021-06-01 15:10:13: "Current database version", "{"version":35,"table_fields_version":35}"
2021-06-01 15:10:13: "Upgrading database from version 35"
2021-06-01 15:10:13: "New version: 35. Previously recorded version: 35"
2021-06-01 15:10:13: "KeychainService: checking if keychain supported"
2021-06-01 15:10:13: "KeychainService: check was already done - skipping. Supported:", "1"
2021-06-01 15:10:13: handleSyncStartupOperation: "Processing operation:", "0"
2021-06-01 15:10:13: App: "Client ID: fc496007980c466ab78d22d211e24b02"
2021-06-01 15:10:13: "Trying to load 0 master keys..."
2021-06-01 15:10:13: "Loaded master keys: 0"
2021-06-01 15:10:13: "ResourceFetcher: Auto-add resources: Mode: always"
2021-06-01 15:10:13: "ResourceFetcher: Auto-added resources: 0"
2021-06-01 15:10:13: "Trying to load 0 master keys..."
2021-06-01 15:10:13: "Loaded master keys: 0"
2021-06-01 15:10:13: "Trying to load 0 master keys..."
2021-06-01 15:10:13: "Loaded master keys: 0"
2021-06-01 15:10:13: "Trying to load 0 master keys..."
2021-06-01 15:10:13: "Loaded master keys: 0"
2021-06-01 15:10:13: "app.start: doing regular boot"
2021-06-01 15:10:13: "Trying to load 0 master keys..."
2021-06-01 15:10:13: "Loaded master keys: 0"
2021-06-01 15:10:13: "Trying to load 0 master keys..."
2021-06-01 15:10:13: "Loaded master keys: 0"
2021-06-01 15:10:13: "Trying to load 0 master keys..."
2021-06-01 15:10:13: "Loaded master keys: 0"
2021-06-01 15:10:14: "RevisionService::runInBackground: Starting background service with revision collection interval 600000"
2021-06-01 15:10:14: SpellCheckerServiceDriverNative: "Set effective language from "en-US" to "en-US""
2021-06-01 15:10:15: "Preparing scheduled sync"
2021-06-01 15:10:15: "Saving updated Dropbox auth."
2021-06-01 15:10:15: "DecryptionWorker: cannot start because no master key is currently loaded."
2021-06-01 15:10:15: "Synchroniser is missing credentials - manual sync required to authenticate."
2021-06-01 15:10:15: "Updating all notifications..."
2021-06-01 15:10:15: "Garbage collecting alarms..."
2021-06-01 15:10:16: "DecryptionWorker: cannot start because no master key is currently loaded."
2021-06-01 15:10:18: "RevisionService::maintenance: Starting..."
2021-06-01 15:10:18: "RevisionService::maintenance: Service is enabled"
2021-06-01 15:10:18: "RevisionService::collectRevisions: Created revisions for 0 notes"
2021-06-01 15:10:18: "RevisionService::maintenance: Done in 107ms"
2021-06-01 15:10:23: "SearchEngine: Updating FTS table..."
2021-06-01 15:10:23: "SearchEngine: Updated FTS table in 1ms. Inserted: 0. Deleted: 0"
2021-06-01 15:10:39: "Fetching geolocation..."
2021-06-01 15:10:40: "Got lat/long"
2021-06-01 15:10:40: "Updating lat/long of note 477599ca0cf64dca8e8c71dac8b48807"
2021-06-01 15:10:44: "ResourceService::indexNoteResources: Start"
2021-06-01 15:10:44: "SearchEngine: Updating FTS table..."
2021-06-01 15:10:44: "ResourceService::indexNoteResources: Completed"
2021-06-01 15:10:44: "ResourceService::deleteOrphanResources:", "[]"
2021-06-01 15:10:44: "SearchEngine: Updated FTS table in 31ms. Inserted: 1. Deleted: 0"
2021-06-01 15:10:54: "SearchEngine: Updating FTS table..."
2021-06-01 15:10:54: "SearchEngine: Updated FTS table in 20ms. Inserted: 1. Deleted: 0"
2021-06-01 15:11:04: "SearchEngine: Updating FTS table..."
2021-06-01 15:11:04: "SearchEngine: Updated FTS table in 18ms. Inserted: 1. Deleted: 0"
2021-06-01 15:11:15: "SearchEngine: Updating FTS table..."
2021-06-01 15:11:15: "SearchEngine: Updated FTS table in 18ms. Inserted: 1. Deleted: 0"
2021-06-01 15:11:25: "SearchEngine: Updating FTS table..."
2021-06-01 15:11:25: "SearchEngine: Updated FTS table in 45ms. Inserted: 1. Deleted: 0"
2021-06-01 15:11:36: "SearchEngine: Updating FTS table..."
2021-06-01 15:11:36: "SearchEngine: Updated FTS table in 17ms. Inserted: 1. Deleted: 0"
2021-06-01 15:11:47: "SearchEngine: Updating FTS table..."
2021-06-01 15:11:47: "SearchEngine: Updated FTS table in 48ms. Inserted: 2. Deleted: 0"
2021-06-01 15:11:58: "SearchEngine: Updating FTS table..."
2021-06-01 15:11:58: "SearchEngine: Updated FTS table in 38ms. Inserted: 1. Deleted: 0"
2021-06-01 15:12:09: "SearchEngine: Updating FTS table..."
2021-06-01 15:12:09: "SearchEngine: Updated FTS table in 20ms. Inserted: 1. Deleted: 0"
2021-06-01 15:12:20: "SearchEngine: Updating FTS table..."
2021-06-01 15:12:20: "SearchEngine: Updated FTS table in 16ms. Inserted: 1. Deleted: 0"
2021-06-01 15:12:31: "SearchEngine: Updating FTS table..."
2021-06-01 15:12:31: "SearchEngine: Updated FTS table in 22ms. Inserted: 1. Deleted: 0"
2021-06-01 15:12:41: "SearchEngine: Updating FTS table..."
2021-06-01 15:12:41: "SearchEngine: Updated FTS table in 17ms. Inserted: 1. Deleted: 0"
2021-06-01 15:12:52: "SearchEngine: Updating FTS table..."
2021-06-01 15:12:52: "SearchEngine: Updated FTS table in 17ms. Inserted: 1. Deleted: 0"
2021-06-01 15:13:03: "SearchEngine: Updating FTS table..."
2021-06-01 15:13:03: "SearchEngine: Updated FTS table in 18ms. Inserted: 1. Deleted: 0"
2021-06-01 15:13:17: "SearchEngine: Updating FTS table..."
2021-06-01 15:13:17: "SearchEngine: Updated FTS table in 17ms. Inserted: 1. Deleted: 0"
2021-06-01 15:13:29: "SearchEngine: Updating FTS table..."
2021-06-01 15:13:29: "SearchEngine: Updated FTS table in 22ms. Inserted: 1. Deleted: 0"
2021-06-01 15:13:57: "Preparing scheduled sync"
2021-06-01 15:13:57: "Synchroniser is missing credentials - manual sync required to authenticate."
2021-09-20 14:32:49: App: "Profile directory: /Users/RaghavDixit/.config/joplin-desktop"
2021-09-20 14:32:49: "Database was open successfully"
2021-09-20 14:32:49: "Checking for database schema update..."
2021-09-20 14:32:49: "Current database version", "{"version":35,"table_fields_version":35}"
2021-09-20 14:32:49: "Upgrading database from version 35"
2021-09-20 14:32:49: "Converting database to version 36"
2021-09-20 14:32:49: "Converting database to version 37"
2021-09-20 14:32:49: "Converting database to version 38"
2021-09-20 14:32:49: "Converting database to version 39"
2021-09-20 14:32:49: "New version: 39. Previously recorded version: 35"
2021-09-20 14:32:49: "Initializing tables..."
2021-09-20 14:32:49: "KeychainService: checking if keychain supported"
2021-09-20 14:32:49: "KeychainService: check was already done - skipping. Supported:", "1"
2021-09-20 14:32:49: handleSyncStartupOperation: "Processing operation:", "0"
2021-09-20 14:32:49: App: "Client ID: fc496007980c466ab78d22d211e24b02"
2021-09-20 14:32:49: e2ee/utils: "Trying to load 0 master keys..."
2021-09-20 14:32:49: e2ee/utils: "Loaded master keys: 0"
2021-09-20 14:32:49: "ResourceFetcher: Auto-add resources: Mode: always"
2021-09-20 14:32:49: "ResourceFetcher: Auto-added resources: 0"
2021-09-20 14:32:49: App: ""syncInfoCache" was changed - setting up encryption related code"
2021-09-20 14:32:49: e2ee/utils: "Trying to load 0 master keys..."
2021-09-20 14:32:49: e2ee/utils: "Loaded master keys: 0"
2021-09-20 14:32:49: App: ""syncInfoCache" was changed - setting up encryption related code"
2021-09-20 14:32:49: e2ee/utils: "Trying to load 0 master keys..."
2021-09-20 14:32:49: e2ee/utils: "Loaded master keys: 0"
2021-09-20 14:32:49: "app.start: doing regular boot"
2021-09-20 14:32:49: App: ""syncInfoCache" was changed - setting up encryption related code"
2021-09-20 14:32:49: e2ee/utils: "Trying to load 0 master keys..."
2021-09-20 14:32:49: e2ee/utils: "Loaded master keys: 0"
2021-09-20 14:32:49: App: ""syncInfoCache" was changed - setting up encryption related code"
2021-09-20 14:32:49: e2ee/utils: "Trying to load 0 master keys..."
2021-09-20 14:32:49: e2ee/utils: "Loaded master keys: 0"
2021-09-20 14:32:49: RevisionService: "RevisionService::runInBackground: Starting background service with revision collection interval 600000"
2021-09-20 14:32:49: SpellCheckerServiceDriverNative: "Set effective language from "en-US" to "en-US""
2021-09-20 14:32:50: "Preparing scheduled sync"
2021-09-20 14:32:50: "Saving updated Dropbox auth."
2021-09-20 14:32:50: "DecryptionWorker: cannot start because no master key is currently loaded."
2021-09-20 14:32:50: "Synchroniser is missing credentials - manual sync required to authenticate."
2021-09-20 14:32:50: "Updating all notifications..."
2021-09-20 14:32:50: "Garbage collecting alarms..."
2021-09-20 14:32:51: "DecryptionWorker: cannot start because no master key is currently loaded."
2021-09-20 14:32:53: RevisionService: "RevisionService::maintenance: Starting..."
2021-09-20 14:32:53: RevisionService: "RevisionService::maintenance: Service is enabled"
2021-09-20 14:32:53: RevisionService: "RevisionService::collectRevisions: Created revisions for 1 notes"
2021-09-20 14:32:53: RevisionService: "RevisionService::maintenance: Done in 135ms"
2021-09-20 14:32:54: checkForUpdates: "Starting..."
2021-09-20 14:32:54: checkForUpdates: "Checking with options {"includePreReleases":false}"
2021-09-20 14:32:55: checkForUpdates: "Current version: 2.3.5"
2021-09-20 14:32:55: checkForUpdates: "Latest version: 2.3.5"
2021-09-20 14:32:55: checkForUpdates: "Is Pre-release:", "false"
2021-09-20 14:32:55: checkForUpdates: "Done."
2021-09-20 14:32:59: "SearchEngine: Updating FTS table..."
2021-09-20 14:32:59: "SearchEngine: Updated FTS table in 1ms. Inserted: 0. Deleted: 0"
2021-09-20 14:33:19: "ResourceService::indexNoteResources: Start"
2021-09-20 14:33:19: "ResourceService::indexNoteResources: Completed"
2021-09-20 14:33:19: "ResourceService::deleteOrphanResources:", "[]"
2021-09-20 14:34:10: "SearchEngine: Updating FTS table..."
2021-09-20 14:34:10: "SearchEngine: Updated FTS table in 55ms. Inserted: 1. Deleted: 0"
2021-09-20 14:34:32: "Preparing scheduled sync"
2021-09-20 14:34:32: "Synchroniser is missing credentials - manual sync required to authenticate."
2021-09-20 14:37:49: "Running background sync on timer..."
2021-09-20 14:37:49: "Preparing scheduled sync"
2021-09-20 14:37:49: "Could not run background sync:"
2021-09-20 14:37:49: "Error: Error: EROFS: read-only file system, mkdir '/~'. Path: ~/OneDrive/Joplin
Code: EROFS
Error: Error: EROFS: read-only file system, mkdir '/~'. Path: ~/OneDrive/Joplin
    at FileApiDriverLocal.fsErrorToJsError_ (/Applications/Joplin.app/Contents/Resources/app.asar/node_modules/@joplin/lib/file-api-driver-local.js:20:18)
    at FileApiDriverLocal.mkdir (/Applications/Joplin.app/Contents/Resources/app.asar/node_modules/@joplin/lib/file-api-driver-local.js:120:15)
    at async SyncTargetFilesystem.initFileApi (/Applications/Joplin.app/Contents/Resources/app.asar/node_modules/@joplin/lib/SyncTargetFilesystem.js:35:3)"
2021-09-20 14:39:53: "SearchEngine: Updating FTS table..."
2021-09-20 14:39:53: "SearchEngine: Updated FTS table in 34ms. Inserted: 1. Deleted: 0"
2021-09-20 14:40:04: "SearchEngine: Updating FTS table..."
2021-09-20 14:40:04: "SearchEngine: Updated FTS table in 24ms. Inserted: 1. Deleted: 0"
2021-09-20 14:40:09: "Fetching geolocation..."
2021-09-20 14:40:10: "Got lat/long"
2021-09-20 14:40:10: "Updating lat/long of note d94c2df4dc3744a0b1ed609d51062612"
2021-09-20 14:40:13: "Provisional was not modified - deleting it"
2021-09-20 14:40:16: "SearchEngine: Updating FTS table..."
2021-09-20 14:40:16: "SearchEngine: Updated FTS table in 62ms. Inserted: 1. Deleted: 1"
2021-09-20 14:40:43: "Preparing scheduled sync"
2021-09-20 14:40:43: "Could not run background sync:"
2021-09-20 14:40:43: "Error: Error: EROFS: read-only file system, mkdir '/~'. Path: ~/OneDrive/Joplin
Code: EROFS
Error: Error: EROFS: read-only file system, mkdir '/~'. Path: ~/OneDrive/Joplin
    at FileApiDriverLocal.fsErrorToJsError_ (/Applications/Joplin.app/Contents/Resources/app.asar/node_modules/@joplin/lib/file-api-driver-local.js:20:18)
    at FileApiDriverLocal.mkdir (/Applications/Joplin.app/Contents/Resources/app.asar/node_modules/@joplin/lib/file-api-driver-local.js:120:15)
    at async SyncTargetFilesystem.initFileApi (/Applications/Joplin.app/Contents/Resources/app.asar/node_modules/@joplin/lib/SyncTargetFilesystem.js:35:3)"
2021-09-20 14:42:49: RevisionService: "RevisionService::maintenance: Starting..."
2021-09-20 14:42:49: RevisionService: "RevisionService::maintenance: Service is enabled"
2021-09-20 14:42:49: RevisionService: "RevisionService::collectRevisions: Created revisions for 2 notes"
2021-09-20 14:42:49: RevisionService: "RevisionService::maintenance: Done in 197ms"
2021-09-20 14:45:43: "Running background sync on timer..."
2021-09-20 14:45:43: "Preparing scheduled sync"
2021-09-20 14:45:43: "Could not run background sync:"
2021-09-20 14:45:43: "Error: Error: EROFS: read-only file system, mkdir '/~'. Path: ~/OneDrive/Joplin
Code: EROFS
Error: Error: EROFS: read-only file system, mkdir '/~'. Path: ~/OneDrive/Joplin
    at FileApiDriverLocal.fsErrorToJsError_ (/Applications/Joplin.app/Contents/Resources/app.asar/node_modules/@joplin/lib/file-api-driver-local.js:20:18)
    at FileApiDriverLocal.mkdir (/Applications/Joplin.app/Contents/Resources/app.asar/node_modules/@joplin/lib/file-api-driver-local.js:120:15)
    at async SyncTargetFilesystem.initFileApi (/Applications/Joplin.app/Contents/Resources/app.asar/node_modules/@joplin/lib/SyncTargetFilesystem.js:35:3)"
2021-09-20 14:50:43: "Running background sync on timer..."
2021-09-20 14:50:43: "Preparing scheduled sync"
2021-09-20 14:50:43: "Could not run background sync:"
2021-09-20 14:50:43: "Error: Error: EROFS: read-only file system, mkdir '/~'. Path: ~/OneDrive/Joplin
Code: EROFS
Error: Error: EROFS: read-only file system, mkdir '/~'. Path: ~/OneDrive/Joplin
    at FileApiDriverLocal.fsErrorToJsError_ (/Applications/Joplin.app/Contents/Resources/app.asar/node_modules/@joplin/lib/file-api-driver-local.js:20:18)
    at FileApiDriverLocal.mkdir (/Applications/Joplin.app/Contents/Resources/app.asar/node_modules/@joplin/lib/file-api-driver-local.js:120:15)
    at async SyncTargetFilesystem.initFileApi (/Applications/Joplin.app/Contents/Resources/app.asar/node_modules/@joplin/lib/SyncTargetFilesystem.js:35:3)"
2021-09-20 14:52:49: RevisionService: "RevisionService::maintenance: Starting..."
2021-09-20 14:52:49: RevisionService: "RevisionService::maintenance: Service is enabled"
2021-09-20 14:52:49: RevisionService: "RevisionService::collectRevisions: Created revisions for 0 notes"
2021-09-20 14:52:49: RevisionService: "RevisionService::maintenance: Done in 106ms"
2021-09-20 14:55:43: "Running background sync on timer..."
2021-09-20 14:55:43: "Preparing scheduled sync"
2021-09-20 14:55:43: "Could not run background sync:"
2021-09-20 14:55:43: "Error: Error: EROFS: read-only file system, mkdir '/~'. Path: ~/OneDrive/Joplin
Code: EROFS
Error: Error: EROFS: read-only file system, mkdir '/~'. Path: ~/OneDrive/Joplin
    at FileApiDriverLocal.fsErrorToJsError_ (/Applications/Joplin.app/Contents/Resources/app.asar/node_modules/@joplin/lib/file-api-driver-local.js:20:18)
    at FileApiDriverLocal.mkdir (/Applications/Joplin.app/Contents/Resources/app.asar/node_modules/@joplin/lib/file-api-driver-local.js:120:15)
    at async SyncTargetFilesystem.initFileApi (/Applications/Joplin.app/Contents/Resources/app.asar/node_modules/@joplin/lib/SyncTargetFilesystem.js:35:3)"
